<?xml version="1.0" encoding="UTF-8"?>
<!DOCTYPE svg PUBLIC "-//W3C//DTD SVG 1.1//EN" "http://www.w3.org/Graphics/SVG/1.1/DTD/svg11.dtd">
<!-- Creator: CorelDRAW 2017 -->
<svg xmlns="http://www.w3.org/2000/svg" xml:space="preserve" width="66.086mm" height="64.4066mm" version="1.1" style="shape-rendering:geometricPrecision; text-rendering:geometricPrecision; image-rendering:optimizeQuality; fill-rule:evenodd; clip-rule:evenodd"
viewBox="0 0 6608.6 6440.66"
 xmlns:xlink="http://www.w3.org/1999/xlink">
 <defs>
  <style type="text/css">
   <![CDATA[
    .fil0 {fill:#123ba3;fill-rule:nonzero}
   ]]>
  </style>
 </defs>
 <g id="Слой_x0020_1">
  <metadata id="CorelCorpID_0Corel-Layer"/>
  <path class="fil0" d="M3304.3 0c545.84,0 1040.05,221.28 1397.78,579.01 357.74,357.73 579.01,851.94 579.01,1397.78 0,545.84 -221.28,1040.05 -579.01,1397.78 -40.32,40.32 -82.39,78.88 -126.05,115.61 401.52,167.49 762.97,411.84 1065.88,714.75 575.92,575.92 940.28,1363.36 966.69,2235.73l-705.93 0c-26.1,-677.58 -311.43,-1288.68 -759.62,-1736.87 -505.52,-505.52 -1126.15,-751.46 -1834.94,-750.24 -716.36,1.31 -1330.06,237.73 -1842.56,750.24 -448.19,448.19 -733.52,1059.28 -759.62,1736.87l-705.93 0c26.41,-872.38 390.77,-1659.81 966.69,-2235.73 302.9,-302.91 664.35,-547.26 1065.87,-714.75 -43.66,-36.73 -85.72,-75.29 -126.04,-115.61 -357.73,-357.73 -579.01,-851.94 -579.01,-1397.78 0,-545.85 221.27,-1040.05 579.01,-1397.78 357.73,-357.74 851.93,-579.01 1397.78,-579.01zm898.92 2875.71c230.02,-230.02 372.31,-547.85 372.31,-898.92 0,-351.07 -142.28,-668.9 -372.31,-898.92 -230.02,-230.02 -547.85,-372.31 -898.92,-372.31 -351.08,0 -668.9,142.28 -898.92,372.31 -230.03,230.02 -372.31,547.84 -372.31,898.92 0,351.07 142.29,668.9 372.31,898.92 223.53,223.54 579.93,380.69 899.46,380.69 318.82,0 675.41,-157.72 898.38,-380.69z"/>
 </g>
</svg>
