<?xml version="1.0" encoding="UTF-8"?>
<!DOCTYPE svg PUBLIC "-//W3C//DTD SVG 1.1//EN" "http://www.w3.org/Graphics/SVG/1.1/DTD/svg11.dtd">
<!-- Creator: CorelDRAW X7 -->
<svg xmlns="http://www.w3.org/2000/svg" xml:space="preserve" width="58.664mm" height="19.7769mm" version="1.1" style="shape-rendering:geometricPrecision; text-rendering:geometricPrecision; image-rendering:optimizeQuality; fill-rule:evenodd; clip-rule:evenodd"
viewBox="0 0 5866 1978"
 xmlns:xlink="http://www.w3.org/1999/xlink">
 <defs>
  <style type="text/css">
   <![CDATA[
    .fil0 {fill:#143CA5}
    .fil1 {fill:#E62328}
   ]]>
  </style>
 </defs>
 <g id="Слой_x0020_1">
  <metadata id="CorelCorpID_0Corel-Layer"/>
  <g id="_1151944480">
   <path class="fil0" d="M4880 762c-6,-10 -9,-20 -12,-32 -65,67 -142,100 -229,98 -75,-2 -103,-47 -85,-136 -27,53 -48,85 -101,115 -27,15 -58,23 -93,23 -94,1 -148,-38 -161,-116 -64,75 -137,114 -218,118 -66,4 -111,-10 -133,-40 -22,-31 -27,-73 -15,-126 1,-3 1,-6 2,-11 1,-4 2,-8 2,-10l-78 0c-7,32 -20,86 -40,164 -2,10 -22,19 -61,24 -38,6 -76,6 -111,1 -36,-5 -52,-15 -49,-30 5,-15 9,-32 14,-51 -8,8 -17,15 -25,22 -50,41 -106,61 -168,62 -33,0 -57,-11 -72,-34 -15,-23 -18,-58 -8,-107 -59,94 -134,141 -226,143 -28,0 -51,-4 -70,-12 -19,-8 -33,-18 -42,-31 -9,-13 -15,-28 -18,-46 -1,-6 -2,-12 -3,-17 -24,25 -49,45 -76,61 -56,32 -127,48 -213,47 -90,0 -158,-21 -205,-63 -26,-23 -45,-50 -57,-80 -73,97 -152,146 -237,147 -35,0 -62,-17 -81,-51 -19,-33 -28,-81 -28,-142 -12,40 -29,75 -51,108 -21,32 -40,50 -56,55 -52,26 -95,23 -127,-11 -28,-26 -42,-78 -44,-157 -18,60 -35,117 -49,172 -4,13 -32,22 -84,28 -63,7 -101,2 -116,-17 -5,-6 -6,-13 -4,-20 3,-8 5,-15 7,-22 -7,6 -15,10 -22,15 -56,32 -127,48 -213,47 -90,0 -158,-21 -205,-63 -26,-24 -45,-51 -57,-82 -88,106 -217,153 -323,159 -51,2 -99,-1 -144,-12 -46,-12 -87,-30 -125,-56 -37,-26 -67,-62 -89,-109 -22,-46 -32,-101 -32,-163 2,-289 312,-608 613,-504 207,73 176,335 -30,399 -5,2 -10,3 -15,4 -64,7 -117,-71 -55,-158 5,-4 9,-8 14,-12 17,-18 22,-37 16,-59 -5,-15 -17,-25 -37,-32 -19,-6 -39,-7 -61,-2 -150,31 -275,335 -197,493 18,38 46,65 85,84 38,18 84,23 137,15 105,-16 181,-61 228,-133l0 0c0,-78 30,-144 88,-198 60,-56 137,-82 229,-79 40,2 74,10 102,25 28,14 48,32 58,53 11,21 18,43 21,68 3,25 -1,48 -13,68 -18,41 -49,70 -94,90 -45,19 -99,25 -163,20 12,40 42,65 90,76 48,11 98,4 150,-19 42,-19 74,-46 98,-80 8,-19 16,-38 24,-55 28,-61 67,-135 116,-221 7,-13 28,-22 62,-27 35,-5 68,-5 99,2 31,6 45,17 42,34 -9,47 -15,101 -18,160 -3,60 0,101 7,125 25,-38 68,-136 130,-294 7,-20 39,-30 94,-30 54,1 89,9 105,26 4,5 6,11 5,16 -18,94 -27,173 -27,237 0,64 12,97 33,100 16,2 34,-4 54,-19 19,-14 44,-43 75,-87 0,-78 30,-144 88,-198 60,-56 137,-82 229,-79 40,2 73,10 102,25 28,15 48,32 58,53 11,21 18,44 21,68 3,25 -1,48 -13,69 -18,40 -49,69 -94,89 -45,19 -99,26 -163,20 12,40 42,65 90,76 48,11 98,4 150,-19 53,-24 91,-61 115,-109l0 -1c16,-69 39,-156 67,-261 17,-15 53,-20 111,-15 57,5 92,19 104,40 -49,179 -75,281 -78,306 -2,25 3,37 14,37 17,-1 36,-19 56,-54 21,-35 36,-69 46,-104 17,-57 36,-128 55,-212 12,-13 47,-19 104,-16 57,3 93,15 109,38 -4,22 -11,51 -20,85 -9,35 -17,66 -25,94 -8,28 -14,55 -20,82 -5,26 -8,47 -7,62 0,15 5,23 13,23 19,0 39,-9 63,-29 21,-18 41,-43 60,-73 3,-13 7,-27 10,-42 26,-105 45,-180 57,-223 26,-15 65,-19 118,-13 53,5 84,18 93,36 -3,14 -16,67 -38,159l78 -1c18,-71 34,-132 48,-182 17,-14 53,-19 108,-14 55,5 90,18 104,39 -7,28 -16,64 -28,107 -11,43 -21,79 -27,107 -7,27 -12,49 -14,65 -3,21 -4,37 -1,46 3,9 10,14 21,14 39,-1 81,-36 126,-105 10,-44 29,-85 57,-122 38,-49 80,-86 126,-110 46,-24 92,-39 139,-46 57,-7 117,-5 178,7 61,12 108,36 143,71 4,18 -4,40 -25,65 -22,25 -39,36 -52,35 -116,-100 -328,-82 -375,86 -14,49 -1,84 18,102 45,41 83,-15 104,-52 23,-42 43,-85 58,-129 22,-11 54,-12 97,-2 43,10 70,22 81,37 -6,17 -14,39 -23,68 -16,60 -8,90 23,90 25,-1 51,-11 76,-32 25,-19 45,-43 62,-72l2 -3c3,-4 6,-6 11,-5l1 0c2,0 6,0 9,2 9,3 18,9 25,16 8,8 11,13 10,16l-2 4c-9,26 -11,46 -5,61 5,16 17,23 34,22 34,-1 59,-28 76,-80 -56,-38 -75,-92 -58,-162 12,-48 39,-87 81,-114 42,-28 90,-43 142,-46 53,-2 107,5 163,23 56,18 103,44 142,78 12,12 8,32 -12,60 -21,28 -39,39 -53,33 -73,-76 -286,-145 -309,-1 -6,37 21,70 59,70 28,0 50,-34 65,-78 13,-9 30,-12 53,-10 22,2 44,8 65,20 21,12 30,25 29,39 -33,99 -35,150 -6,155 27,4 54,-5 82,-27 28,-23 51,-50 68,-81 3,-4 10,-5 19,-2 8,3 17,8 25,15 8,8 12,13 10,17 -82,138 -179,206 -291,206 -66,-1 -97,-56 -93,-168l-19 6c-25,62 -53,104 -80,129 -75,68 -211,52 -254,-29zm-3709 -181c50,0 92,-4 122,-26 80,-60 27,-141 -48,-110 -36,14 -71,55 -74,136zm1360 -2c50,0 93,-4 122,-26 80,-60 27,-141 -48,-110 -36,14 -70,55 -74,136zm833 -482c12,-11 24,-7 37,14 14,22 17,41 9,58l-1 2c-23,33 -58,58 -106,75 -47,16 -92,20 -134,10 -42,-10 -67,-32 -75,-65 -3,-15 1,-31 13,-48 12,-17 25,-29 40,-37 15,-8 25,-9 30,-2 11,19 30,30 56,32 27,3 52,1 77,-8 25,-8 43,-18 54,-31z"/>
   <path class="fil1" d="M1086 1978l-330 0 -55 -188 -317 0 -55 188 -329 0 338 -1005 410 0 338 1005zm-449 -409l-95 -319 -95 319 190 0zm1454 409l-309 0 0 -753 -315 0 0 753 -309 0 0 -1005 933 0 0 1005zm841 -749l-215 0 0 749 -309 0 0 -749 -217 0 0 -256 741 0 0 256zm735 749l-635 0 0 -1005 635 0 0 252 -326 0 0 129 302 0 0 237 -302 0 0 135 326 0 0 252zm1083 0l-368 0 -290 -447 0 447 -309 0 0 -1005 309 0 0 421 286 -421 356 0 -355 485 371 520zm1116 0l-329 0 -55 -188 -317 0 -55 188 -329 0 338 -1005 410 0 337 1005zm-448 -409l-96 -319 -94 319 190 0z"/>
  </g>
 </g>
</svg>
