<?xml version="1.0" encoding="UTF-8"?>
<!DOCTYPE svg PUBLIC "-//W3C//DTD SVG 1.1//EN" "http://www.w3.org/Graphics/SVG/1.1/DTD/svg11.dtd">
<!-- Creator: CorelDRAW X7 -->
<svg xmlns="http://www.w3.org/2000/svg" xml:space="preserve" width="13.7541mm" height="8.8305mm" version="1.1" style="shape-rendering:geometricPrecision; text-rendering:geometricPrecision; image-rendering:optimizeQuality; fill-rule:evenodd; clip-rule:evenodd"
viewBox="0 0 144 93"
 xmlns:xlink="http://www.w3.org/1999/xlink">
 <defs>
  <style type="text/css">
   <![CDATA[
    .fil0 {fill:white}
   ]]>
  </style>
 </defs>
 <g id="Слой_x0020_1">
  <metadata id="CorelCorpID_0Corel-Layer"/>
  <path class="fil0" d="M98 80c0,-1 0,-2 -1,-3 0,0 0,-1 0,-1 -1,-3 -1,-2 5,-2 5,0 5,-3 6,-7l2 -7c1,-2 2,-5 2,-7 1,-2 1,-2 2,-5l5 -19c1,-1 1,-1 1,-2 1,-1 1,-2 1,-3 1,-1 11,-1 13,-1 5,0 10,1 10,-3 0,-3 -2,-4 -4,-4 -28,0 -23,-2 -26,9l-2 5c-1,2 0,1 -1,4 -1,1 -1,1 -1,2l-4 15c-1,1 -1,2 -1,3l-2 8c-2,4 -1,5 -5,5l-63 0c-2,0 -3,0 -5,0 -2,1 -3,5 0,6 1,1 2,1 3,1 1,1 -1,4 -1,5 0,4 0,7 3,10 2,1 4,4 7,4 4,0 8,0 11,-5l2 -2c0,0 0,-1 0,-1 1,-2 1,-7 0,-8 0,-1 -2,-3 0,-3l19 0c2,0 1,1 1,2 -2,5 -1,11 3,14 2,1 4,3 6,3 5,0 4,0 8,-2 2,-1 3,-3 4,-5 0,0 1,0 1,0 0,-1 0,0 0,-1l1 -5zm-72 -66c1,0 1,0 2,0 6,0 5,-1 5,2l0 11c3,2 9,0 14,1 0,1 1,1 1,2 0,6 0,5 -7,5 -2,0 -5,0 -7,0 -2,4 0,14 -2,14 -7,0 -6,1 -6,-7 0,-3 1,-6 0,-7 -2,0 -3,0 -4,0l-9 0c-1,0 -1,-6 0,-7l12 0 1 -1 0 -13zm-25 24c1,3 3,7 5,9 0,1 0,1 0,1l0 0c1,0 1,1 1,1 2,3 1,1 4,4 4,3 7,4 11,6 1,0 3,0 5,1 5,0 8,0 13,-2 2,0 5,-2 7,-3l4 -3c2,-2 3,-4 5,-6l2 -4c1,-4 1,-4 1,-6 1,-1 1,-1 1,-2 0,-5 0,-10 -2,-14 -2,-4 -1,-3 -3,-7 -1,-1 -1,-1 -2,-2l-2 -2c-2,-2 -4,-4 -7,-5l-5 -3c-2,0 -1,0 -3,0 -2,-1 -7,-1 -10,-1 -1,0 -2,1 -3,1 -1,0 -2,0 -3,0 -1,1 -5,3 -6,4 -3,2 -5,4 -8,6 0,1 0,2 -1,2 0,1 -1,2 -1,2 -3,5 -2,6 -4,11 0,3 0,2 0,5l1 7zm107 -14c0,-2 2,-8 -3,-8 -6,0 -38,-1 -42,0 0,2 1,5 2,7l27 0c8,0 9,-1 8,3 -1,2 0,1 -2,4 -4,0 -30,0 -32,1 0,1 0,3 0,4 0,2 4,1 7,1l16 0c9,0 8,0 7,3 -1,4 -1,4 -5,4l-23 0c-6,0 -4,0 -6,3 -1,3 -1,3 2,3 6,0 26,0 29,1 0,1 -1,1 -1,2 0,1 0,2 0,3 -7,2 -35,-1 -38,1 -1,1 -2,3 -5,4 -1,1 -1,0 -1,2 3,1 38,0 45,0 3,0 4,-1 4,-3l3 -10c1,-1 1,-2 1,-3 0,-1 0,-1 1,-1 0,-1 0,-2 0,-2l3 -11c1,-1 1,-1 1,-2 0,-2 0,-1 1,-3 0,-1 0,-2 1,-3z"/>
 </g>
</svg>
